template,type,subtype,trouble
{{adjective-any-mental}} {{list-defender|bigot|protector}} of {{noun-plural}},ego,,TRUE
{{adjective-any-mental}} by default,ego,,FALSE
{{adjective-negative-mental}},ego,,TRUE
{{adjective-negative-mental}} {{list-yet|but}} {{adjective-positive-mental}},ego,,FALSE
{{adjective-positive-mental}},ego,,FALSE
{{list-Active|Prominent}} member of {{noun-org}},ego,,FALSE
{{list-Active|Prominent|Radical}} member of {{self-faction}} faction,ego,,FALSE
{{list-Hunted by|On the run from|On thin ice with}} {{noun-org}},ego,,TRUE
{{list-Lives on the edge|Risk taker}},ego,,TRUE
{{list-Overly |Strangely |Weirdly |Exceedingly |}}{{adjective-any-mental}} {{noun-being-attitude}},ego,,FALSE
{{list-Overly |Strangely |Weirdly |Exceedingly |}}{{adjective-any-mental}} {{noun-being-profession}},ego,,FALSE
{{list-Trust no one|I can only trust myself}},ego,belief,FALSE
{{list-Weirdly|Overly|Exceedingly|Suspiciously}} {{adjective-any-mental}},ego,,FALSE
{{noun-being-attitude}},ego,,FALSE
{{noun-being-faction}} wants my head,ego,,TRUE
{{noun-being-profession}},ego,,FALSE
{{noun-org}} wants my head,ego,,TRUE
Blinded by {{noun-concept}},ego,,TRUE
Disgraced former {{noun-being-profession}},ego,,TRUE
Disowned by my own kind,ego,,TRUE
Driven by {{noun-concept-badthing}},ego,,TRUE
Driven by {{noun-concept-goodthing}},ego,,FALSE
Equality above all,ego,,FALSE
Face the {{noun-concept-badthing}},ego,,TRUE
Fanatic devotee of {{self-faction}} faction,ego,,TRUE
Fearful of {{noun-plural}},ego,,TRUE
Former {{noun-being-profession}},ego,,FALSE
Hates all {{noun-being-plural}},ego,belief,TRUE
Haunted by {{list-past|nightmares|memories|the things I've seen|the things I've done}},ego,,TRUE
High opinion of myself,ego,,FALSE
In debt to {{noun-org}},ego,,TRUE
Jack-of-all-trades,ego,,FALSE
Leave no one behind,ego,,FALSE
Leave nothing to chance,ego,,FALSE
Living a double life,ego,,TRUE
Must defeat {{noun-concept}},ego,,TRUE
Must take down {{noun-org}},ego,,TRUE
Never trust a {{noun-being}},ego,belief,FALSE
Open-ended {{noun-org-hypercorp}} contract,ego,,TRUE
Prefers {{list-machines|AI|uplifts}} to humans,ego,,FALSE
Prone to {{noun-concept-badthing}},ego,,TRUE
Prone to {{noun-concept-goodthing}},ego,,FALSE
Remember your roots,ego,belief,FALSE
Rogue {{list-alpha|beta}} fork,ego,,TRUE
Searching for lost {{noun-relation}},ego,,FALSE
Secret agent of {{noun-org}},ego,,FALSE
Serve {{noun-concept}} above all,ego,,TRUE
Soft-spot for fellow {{self-background}}s,ego,,FALSE
Stick to my guns,ego,,FALSE
Sucker for a pretty {{list-face|morph}},ego,,TRUE
Sworn to avenge {{noun-relation}}’s murder,ego,,FALSE
Sworn vengeance on {{noun-org}},ego,,FALSE
The only good {{noun-being}} is a dead one,ego,belief,FALSE
Vendetta against {{noun-org}},ego,,TRUE
Wronged by {{noun-org}},ego,,TRUE
Wronged by {{noun-relation}},ego,,TRUE
{{adjective-any-physical}} {{adjective-any-physical}} {{self-morph}},morph,,FALSE
{{adjective-any-physical}} {{adjective-any-physical}} {{self-morph}} with a {{noun-phys_attribute-general}},morph,,FALSE
{{adjective-any-physical}} {{adjective-any-physical}} {{self-morph}} with a {{noun-phys_attribute-object}},morph,,FALSE
{{adjective-any-physical}} {{self-morph}},morph,,FALSE
{{adjective-any-physical}} {{self-morph}} with a {{noun-phys_attribute-general}},morph,,FALSE
{{adjective-any-physical}} {{self-morph}} with a {{noun-phys_attribute-object}},morph,,FALSE
{{list-Distinctive|Strange}} {{noun-phys_attribute-face}},morph,,FALSE
{{list-Distinctive|Strange}} {{noun-phys_attribute-face}} dominates appearance,morph,,FALSE
{{list-Distinctive|Strange}} {{noun-phys_attribute-object}} dominates appearance,morph,,FALSE
{{list-Stands out from|Blends into}} the crowd,morph,,FALSE
{{list-Weird|Strange|Grizzly|Distinctive}} physical modifications,morph,,FALSE
{{list-Weirdly|Strangely|Exceedingly|Very}} {{adjective-any-physical}} {{self-morph}},morph,,FALSE
{{list-Weirdly|Strangely|Exceedingly|Very}} {{adjective-any-physical}} {{self-morph}} with a {{noun-phys_attribute-general}},morph,,FALSE
{{list-Weirdly|Strangely|Exceedingly|Very}} {{adjective-any-physical}} {{self-morph}} with a {{noun-phys_attribute-object}},morph,,FALSE
Always {{adjective-any-physical}},morph,,FALSE
Custom-modded ware,morph,,FALSE
