stunt,associated_skill,description,use_cost,restrictions
Ablative Patches,none,some text,0,none
Chameleon Cloak,Infiltrate,some text,0,none
Cover Ops Tool (COT),Hardware,some text,0,none
Demolition Charges,Hardware,some text,0,none
Electronic Rope,none,some text,0,none
Liquid Thermite,Hardware,some text,0,none
Nanofabricator,none,some text,0,none
Nanohive (Cleaners),Investigate,some text,0,none
Nanohive (Engineers),Program,some text,0,none
Nanohive (Guardians),Program,some text,0,none
Nanohive (Proteans),none,some text,0,none
Nanohive (Saboteurs),Infiltrate,some text,0,none
Nanohive (Scouts),Investigate,some text,0,none
Plasma Gun,Shoot,some text,0,none
Quantum Computer,Program Xeno-Contact X-Risks,some text,0,none
Sniper Rifle,Shoot,some text,0,none
Surveillance Bots,Program none,some text,0,none
Underbarrel Seeker Launcher,Shoot none,some text,0,none
