morph,type,sub_type,description,durability,refresh_cost,cred_cost,sample_aspect_1,sample_aspect_2,sample_aspect_3,sample_aspect_4,trait_1,trait_2,trait_3,trait_4,trait_5,trait_6,trait_7,trait_8,stunt_1,stunt_2,stunt_3,stunt_4,stunt_5,stunt_6,stunt_7,stunt_8,sex_weight_male,sex_weight_female,sex_weight_asexual,sex_weight_hermaphrodite
Bouncer,Biomorph,Uncommon,some text,Average +1,1,Great +4,Clumsy in Gravity,,,,Essential Biomorph Traits,Environmental Adaptation (Vacuum),Manipulators (Prehensile Feet),Mobility (Limber),,,,,,,,,,,,,4500,4500,500,500
Flat,Biomorph,Rare,some text,Average +1,0,N/A,Nondescript,Unattractive,,,,,,,,,,,,,,,,,,,4995,4995,5,5
Fury,Biomorph,Combat,some text,Good +3,1,Great +4,Short Temper,,,,Essential Biomorph Traits,,,,,,,,Armor,Enhanced Senses (Hearing/Vision/Smell),Medichines,Reflex Boosters,Structural Enhancement,,,,2500,6500,500,500
Ghost,Biomorph,Combat,some text,Good +3,1,Good +3,Former Morph of Wanted Saboteur,,,,Essential Biomorph Traits,Mobility (Grip Pads),,,,,,,Mobility (Grip Pads),Reflex Boosters,Stealth,,,,,,4500,4500,500,500
Menton,Biomorph,Elite,some text,Average +1,0,Good +3,Oblivious,,,,Essential Biomorph Traits,Mnemonic Augmentation,,,,,,,Multiple Personalities,Mental Speed,Multi-Tasking,,,,,,4500,4500,500,500
Neo-Avian,Biomorph,Uplift,some text,Mediocre +0,0,Good +3,Delicate,,,,Essential Biomorph Traits,Natural Weapon (Claws),Stigma (Uplift),,,,,,Mobility (Flight),,,,,,,,4500,4500,500,500
Neo-Pig,Biomorph,Uplift,some text,Good +3,0,Good +3,Clumsy Trotters,Prematurely Aged,,,Essential Biomorph Traits,Stigma (Uplift),,,,,,,,,,,,,,,4500,4500,500,500
Neotenic,Biomorph,Uncommon,some text,Average +1,0,Good +3,Delicate,,,,Essential Biomorph Traits,Mobility (Limber),Size (Small),,,,,,Hyperlinguist,,,,,,,,2450,2450,5000,100
Octomorph,Biomorph,Uplift,some text,Average +1,2,Great +4,Hair Trigger,Chromatophores,Tentacle Chewer,,Essential Biomorph Traits,Environmental Adaptation (Gills),Manipulators (8 Arms),Mobility (Limber),Mobility (Swim),Natural Attack (Beak),Stigma (Uplift),,Natural Attack (Ink),Natural Attack (Venom),Stealth,,,,,,4500,4500,500,500
Ruster,Biomorph,Common,some text,Average +1,1,Good +3,Always Hungry,Planned Obsolescence,,,Essential Biomorph Traits,Environmental Adaptation (Cold),Environmental Adaptation (Thin Atmosphere),,,,,,,,,,,,,,4500,4500,500,500
Sylph,Biomorph,Elite,some text,Average +1,0,Good +3,Celeb’s Old Morph,Unforgettable Looks,,,Essential Biomorph Traits,Social (Sex Switch),,,,,,,Attraction,,,,,,,,4250,4250,100,1400
Splicer,Biomorph,Common,some text,Average +1,0,Fair +2,Aged,This Year’s Face,,,Essential Biomorph Traits,Common,,,,,,,,,,,,,,,4500,4500,500,500
Novacrab,Pod,Utility,some text,Good +3,1,Great +4,Manners of a Prawn,Shell Parasites,,,Essential Pod Traits,Environmental Adaptation (Gills),Environmental Adaptation (Vacuum),Natural Weapon (Claws),,,,,Armor,Strength,Structural Enhancement,,,,,,4000,4000,1500,500
Scurrier,Pod,Non-human,some text,Average +1,0,Good +3,Delicate,Squirrel-like Instincts,,,Essential Pod Traits,Manipulators (Prehensile Tail),Mobility (Glide),Size (Tiny),,,,,Mobility (Grip Pads),Medichines,Multi-Tasking,,,,,,4500,4500,500,500
Worker Pod,Pod,Underclass,some text,Average +1,0,Good +3,Unfashionable Face,,,,Essential Pod Traits,Common,Stigma (Pod),,,,,,,,,,,,,,3500,3500,2500,500
Case,Synthmorph,Underclass,some text,Average +1,0,Average +1,Lemon,Limited Range of Expression,,,Essential Synthmorph Traits,Stigma (Synth),,,,,,,,,,,,,,,0,0,0,0
Flexbot,Synthmorph,Utility,some text,Average +1,1,Good +3,Difficult to Control,,,,Essential Synthmorph Traits,Modular Construction,,,,,,,Shape Adjusting,,,,,,,,0,0,0,0
Opteryx,Synthmorph,Uplift,some text,Average +1,0,Good +3,Fragile,,,,Essential Synthmorph Traits,Mobility (Flight),Stigma (Uplift),,,,,,Enhanced Senses (Lidar/Radar),,,,,,,,0,0,0,0
Reaper,Synthmorph,Combat,some text,Superb +5,2,Superb +5,Battle-Damaged,Terrifying,,,Essential Synthmorph Traits,Mobility (Flight),Mobility (Hovercraft),Natural Weapon (Claws),,,,,Armor,Reflex Boosters,Enhanced Senses (T-Ray Emitter),,,,,,0,0,0,0
Swarmanoid,Synthmorph,Utility,some text,Average +1,1,Good +3,Spread Thin,,,,Essential Synthmorph Traits,Mobility (Hovercraft),Swarm Composition,,,,,,Multi-Tasking,Stealth,Swarm Composition,,,,,,0,0,0,0
Synth,Synthmorph,Common,some text,Good +3,1,Fair +2,Clanking Masses,,,,Essential Synthmorph Traits,Common,Stigma (Synth),,,,,,Multi-Tasking,Mental Speed,Reflex Boosters,,,,,,0,0,0,0
Eidolon,Infomorph,Utility,some text,N/A,1,Great +4,Inhuman Sensorium,,,,Essential Infomorph Traits,Stigma (Infolife),,,,,,,Multi-Tasking,Mental Speed,,,,,,,0,0,0,0
Infomorph,Infomorph,Common,some text,N/A,0,Good +3,Copyright Trolls,Unempathetic,,,Essential Infomorph Traits,Stigma (Infolife),,,,,,,,,,,,,,,0,0,0,0
